v 20130925 2
C 55700 28600 1 0 0 A29040C.sym
{
T 57900 37000 5 10 0 0 0 0 1
footprint=DIP32
T 57000 35900 5 10 1 1 0 3 1
refdes=U1
}
C 42700 31800 1 0 0 header16-1.sym
{
T 42750 30750 5 10 0 1 0 0 1
device=HEADER16
T 43300 35100 5 10 1 1 0 0 1
refdes=J1
T 42700 31800 5 10 0 0 0 0 1
footprint=HEADER16_2
}
C 42700 28000 1 0 0 header16-1.sym
{
T 42750 26950 5 10 0 1 0 0 1
device=HEADER16
T 43300 31300 5 10 1 1 0 0 1
refdes=J2
T 42700 28000 5 10 0 0 0 0 1
footprint=HEADER16_2
}
C 48000 28500 1 0 0 connector8-1.sym
{
T 48100 31700 5 10 0 0 0 0 1
device=CONNECTOR_8
T 48100 31100 5 10 1 1 0 0 1
refdes=CONN1
T 48000 28500 5 10 0 0 0 0 1
footprint=JUMPER8
}
C 55200 31300 1 0 0 vcc-1.sym
N 55400 31300 55700 31300 4
C 55300 30600 1 0 0 gnd-1.sym
N 55400 30900 55700 30900 4
N 55700 32100 54500 32100 4
{
T 54700 32100 5 10 1 1 0 0 1
netname=CE
}
N 55700 32500 54500 32500 4
{
T 54700 32500 5 10 1 1 0 0 1
netname=OE
}
N 55700 32900 54500 32900 4
{
T 54700 32900 5 10 1 1 0 0 1
netname=WE
}
N 55700 33700 54500 33700 4
{
T 54700 33700 5 10 1 1 0 0 1
netname=D7
}
N 55700 34100 54500 34100 4
{
T 54700 34100 5 10 1 1 0 0 1
netname=D6
}
N 55700 34500 54500 34500 4
{
T 54700 34500 5 10 1 1 0 0 1
netname=D5
}
N 55700 34900 54500 34900 4
{
T 54700 34900 5 10 1 1 0 0 1
netname=D4
}
N 55700 35300 54500 35300 4
{
T 54700 35300 5 10 1 1 0 0 1
netname=D3
}
N 55700 35700 54500 35700 4
{
T 54700 35700 5 10 1 1 0 0 1
netname=D2
}
N 55700 36100 54500 36100 4
{
T 54700 36100 5 10 1 1 0 0 1
netname=D1
}
N 55700 36500 54500 36500 4
{
T 54700 36500 5 10 1 1 0 0 1
netname=D0
}
N 59400 36500 58200 36500 4
{
T 59000 36500 5 10 1 1 0 0 1
netname=A0
}
N 59400 36100 58200 36100 4
{
T 59000 36100 5 10 1 1 0 0 1
netname=A1
}
N 59400 35700 58200 35700 4
{
T 59000 35700 5 10 1 1 0 0 1
netname=A2
}
N 59400 35300 58200 35300 4
{
T 59000 35300 5 10 1 1 0 0 1
netname=A3
}
N 59400 34900 58200 34900 4
{
T 59000 34900 5 10 1 1 0 0 1
netname=A4
}
N 59400 34500 58200 34500 4
{
T 59000 34500 5 10 1 1 0 0 1
netname=A5
}
N 59400 34100 58200 34100 4
{
T 59000 34100 5 10 1 1 0 0 1
netname=A6
}
N 59400 33700 58200 33700 4
{
T 59000 33700 5 10 1 1 0 0 1
netname=A7
}
N 59400 33300 58200 33300 4
{
T 59000 33300 5 10 1 1 0 0 1
netname=A8
}
N 59400 32900 58200 32900 4
{
T 59000 32900 5 10 1 1 0 0 1
netname=A9
}
N 59400 32500 58200 32500 4
{
T 59000 32500 5 10 1 1 0 0 1
netname=A10
}
N 59400 32100 58200 32100 4
{
T 59000 32100 5 10 1 1 0 0 1
netname=A11
}
N 59400 31700 58200 31700 4
{
T 59000 31700 5 10 1 1 0 0 1
netname=A12
}
N 59400 31300 58200 31300 4
{
T 59000 31300 5 10 1 1 0 0 1
netname=A13
}
N 59400 30900 58200 30900 4
{
T 59000 30900 5 10 1 1 0 0 1
netname=A14
}
N 59400 30500 58200 30500 4
{
T 59000 30500 5 10 1 1 0 0 1
netname=A15
}
N 59400 30100 58200 30100 4
{
T 59000 30100 5 10 1 1 0 0 1
netname=A16
}
N 59400 29700 58200 29700 4
{
T 59000 29700 5 10 1 1 0 0 1
netname=A17
}
N 59400 29300 58200 29300 4
{
T 59000 29300 5 10 1 1 0 0 1
netname=A18
}
C 43900 35800 1 90 0 jumper-1.sym
{
T 43400 36100 5 8 0 0 90 0 1
device=JUMPER
T 43400 36100 5 10 1 1 90 0 1
refdes=J3
T 43900 35800 5 10 0 0 0 0 1
footprint=JUMPER2
}
C 43900 36500 1 90 0 jumper-1.sym
{
T 43400 36800 5 8 0 0 90 0 1
device=JUMPER
T 43400 36800 5 10 1 1 90 0 1
refdes=J4
T 43900 36500 5 10 0 0 0 0 1
footprint=JUMPER2
}
N 42900 35900 42800 35900 4
N 42800 35900 42800 35600 4
N 43900 35900 44000 35900 4
N 44000 35900 44000 35600 4
N 42900 36600 42800 36600 4
N 42800 36600 42800 36900 4
N 43900 36600 44000 36600 4
N 44000 36600 44000 36900 4
C 43900 35300 1 0 0 gnd-1.sym
C 42700 35300 1 0 0 gnd-1.sym
C 43800 36900 1 0 0 vcc-1.sym
C 42600 36900 1 0 0 vcc-1.sym
N 42700 34800 41500 34800 4
{
T 41800 34800 5 10 1 1 0 0 1
netname=A0
}
N 45300 34800 44100 34800 4
{
T 44800 34800 5 10 1 1 0 0 1
netname=A1
}
N 42700 34400 41500 34400 4
{
T 41800 34400 5 10 1 1 0 0 1
netname=A2
}
N 45300 34400 44100 34400 4
{
T 44800 34400 5 10 1 1 0 0 1
netname=A3
}
N 42700 34000 41500 34000 4
{
T 41800 34000 5 10 1 1 0 0 1
netname=A4
}
N 45300 34000 44100 34000 4
{
T 44800 34000 5 10 1 1 0 0 1
netname=A5
}
N 42700 33600 41500 33600 4
{
T 41800 33600 5 10 1 1 0 0 1
netname=A6
}
N 45300 33600 44100 33600 4
{
T 44800 33600 5 10 1 1 0 0 1
netname=A7
}
N 42700 33200 41500 33200 4
{
T 41800 33200 5 10 1 1 0 0 1
netname=D7
}
N 45300 33200 44100 33200 4
{
T 44800 33200 5 10 1 1 0 0 1
netname=D6
}
N 42700 32800 41500 32800 4
{
T 41800 32800 5 10 1 1 0 0 1
netname=D5
}
N 45300 32800 44100 32800 4
{
T 44800 32800 5 10 1 1 0 0 1
netname=D4
}
N 42700 32400 41500 32400 4
{
T 41800 32400 5 10 1 1 0 0 1
netname=D3
}
N 45300 32400 44100 32400 4
{
T 44800 32400 5 10 1 1 0 0 1
netname=D2
}
N 42700 32000 41500 32000 4
{
T 41800 32000 5 10 1 1 0 0 1
netname=D1
}
N 45300 32000 44100 32000 4
{
T 44800 32000 5 10 1 1 0 0 1
netname=D0
}
N 42700 31000 41500 31000 4
{
T 41800 31000 5 10 1 1 0 0 1
netname=CE
}
N 45300 31000 44100 31000 4
{
T 44800 31000 5 10 1 1 0 0 1
netname=OE
}
N 42700 30600 41500 30600 4
{
T 41800 30600 5 10 1 1 0 0 1
netname=WE
}
N 42700 30200 41500 30200 4
{
T 41800 30200 5 10 1 1 0 0 1
netname=A8
}
N 45300 30200 44100 30200 4
{
T 44800 30200 5 10 1 1 0 0 1
netname=A9
}
N 42700 29800 41500 29800 4
{
T 41800 29800 5 10 1 1 0 0 1
netname=A10
}
N 45300 29800 44100 29800 4
{
T 44800 29800 5 10 1 1 0 0 1
netname=A11
}
N 42700 29400 41500 29400 4
{
T 41800 29400 5 10 1 1 0 0 1
netname=A12
}
N 45300 29400 44100 29400 4
{
T 44800 29400 5 10 1 1 0 0 1
netname=A13
}
N 42700 29000 41500 29000 4
{
T 41800 29000 5 10 1 1 0 0 1
netname=A14
}
N 45300 29000 44100 29000 4
{
T 44800 29000 5 10 1 1 0 0 1
netname=A15
}
N 50900 30200 49700 30200 4
{
T 50400 30200 5 10 1 1 0 0 1
netname=A18
}
N 50900 30500 49700 30500 4
{
T 50400 30500 5 10 1 1 0 0 1
netname=A17
}
N 50900 30800 49700 30800 4
{
T 50400 30800 5 10 1 1 0 0 1
netname=A16
}
